<svg xmlns="http://www.w3.org/2000/svg" width="90" height="107" viewBox="0 0 90 107">
  <g id="Group_1670" data-name="Group 1670" transform="translate(-638 -409)">
    <rect id="Rectangle_958" data-name="Rectangle 958" width="11" height="11" transform="translate(672 419)" fill="#989898"/>
    <rect id="Rectangle_981" data-name="Rectangle 981" width="12" height="11" transform="translate(694 419)" fill="#989898"/>
    <rect id="Rectangle_982" data-name="Rectangle 982" width="11" height="28" transform="translate(706 430)" fill="#989898"/>
    <rect id="Rectangle_985" data-name="Rectangle 985" width="34" height="58" transform="translate(694 458)" fill="#989898"/>
    <rect id="Rectangle_987" data-name="Rectangle 987" width="34" height="58" transform="translate(649 458)" fill="#989898"/>
    <rect id="Rectangle_983" data-name="Rectangle 983" width="12" height="28" transform="translate(660 430)" fill="#989898"/>
    <rect id="Rectangle_984" data-name="Rectangle 984" width="79" height="18" transform="translate(649 458)" fill="#989898"/>
    <rect id="Rectangle_986" data-name="Rectangle 986" width="79" height="17" transform="translate(649 499)" fill="#7b7b7b"/>
    <rect id="Rectangle_959" data-name="Rectangle 959" width="11" height="10" transform="translate(683 409)" fill="#989898"/>
    <rect id="Rectangle_958-2" data-name="Rectangle 958" width="11" height="11" transform="translate(661 419)" fill="#f1ede6"/>
    <rect id="Rectangle_981-2" data-name="Rectangle 981" width="12" height="11" transform="translate(683 419)" fill="#f1ede6"/>
    <rect id="Rectangle_982-2" data-name="Rectangle 982" width="11" height="28" transform="translate(695 430)" fill="#f1ede6"/>
    <rect id="Rectangle_985-2" data-name="Rectangle 985" width="35" height="58" transform="translate(682 458)" fill="#f1ede6"/>
    <rect id="Rectangle_987-2" data-name="Rectangle 987" width="35" height="58" transform="translate(638 458)" fill="#f1ede6"/>
    <rect id="Rectangle_983-2" data-name="Rectangle 983" width="12" height="28" transform="translate(649 430)" fill="#f1ede6"/>
    <rect id="Rectangle_984-2" data-name="Rectangle 984" width="79" height="18" transform="translate(638 458)" fill="#f1ede6"/>
    <rect id="Rectangle_986-2" data-name="Rectangle 986" width="79" height="21" transform="translate(638 495)" fill="#f1ede6"/>
    <rect id="Rectangle_959-2" data-name="Rectangle 959" width="11" height="10" transform="translate(672 409)" fill="#f1ede6"/>
    <rect id="Rectangle_988" data-name="Rectangle 988" width="12" height="11" transform="translate(649 458)" fill="#fff"/>
    <rect id="Rectangle_989" data-name="Rectangle 989" width="11" height="11" transform="translate(638 469)" fill="#fff"/>
    <rect id="Rectangle_990" data-name="Rectangle 990" width="57" height="11" transform="translate(649 505)" fill="#d3d3d3"/>
    <rect id="Rectangle_991" data-name="Rectangle 991" width="11" height="10" transform="translate(706 495)" fill="#d3d3d3"/>
    <rect id="Rectangle_992" data-name="Rectangle 992" width="17" height="17" transform="translate(669 469)" fill="#989898"/>
  </g>
</svg>
